<svg width="24" height="24" viewBox="0 0 24 24" fill="none" xmlns="http://www.w3.org/2000/svg">
<path d="M14.25 0C14.4489 0 14.6397 0.0790177 14.7803 0.21967C14.921 0.360322 15 0.551088 15 0.75C15 0.948913 15.079 1.13968 15.2197 1.28033C15.3603 1.42098 15.5511 1.5 15.75 1.5C15.9489 1.5 16.1397 1.57902 16.2803 1.71967C16.421 1.86032 16.5 2.05109 16.5 2.25V3C16.5 3.19891 16.421 3.38968 16.2803 3.53033C16.1397 3.67098 15.9489 3.75 15.75 3.75H8.25C8.05109 3.75 7.86032 3.67098 7.71967 3.53033C7.57902 3.38968 7.5 3.19891 7.5 3V2.25C7.5 2.05109 7.57902 1.86032 7.71967 1.71967C7.86032 1.57902 8.05109 1.5 8.25 1.5C8.44891 1.5 8.63968 1.42098 8.78033 1.28033C8.92098 1.13968 9 0.948913 9 0.75C9 0.551088 9.07902 0.360322 9.21967 0.21967C9.36032 0.0790177 9.55109 0 9.75 0L14.25 0Z" fill="white"/>
<path d="M5.25 1.5H6.1275C6.04268 1.74094 5.99956 1.99457 6 2.25V3C6 3.59674 6.23705 4.16903 6.65901 4.59099C7.08097 5.01295 7.65326 5.25 8.25 5.25H15.75C16.3467 5.25 16.919 5.01295 17.341 4.59099C17.7629 4.16903 18 3.59674 18 3V2.25C18 1.9875 17.955 1.734 17.8725 1.5H18.75C19.3467 1.5 19.919 1.73705 20.341 2.15901C20.7629 2.58097 21 3.15326 21 3.75V21.75C21 22.3467 20.7629 22.919 20.341 23.341C19.919 23.7629 19.3467 24 18.75 24H5.25C4.65326 24 4.08097 23.7629 3.65901 23.341C3.23705 22.919 3 22.3467 3 21.75V3.75C3 3.15326 3.23705 2.58097 3.65901 2.15901C4.08097 1.73705 4.65326 1.5 5.25 1.5Z" fill="white"/>
</svg>
